*** ICL ***
***********
* Version: 4.3 - ACE 1.2.15 
* Runtime: no 
***********
* Date: dd/mm/yyyy 
* User: unknown 
* Dir: C:\ML-Tools\ACE-1.2.15\windows\gap_selection/ 
* Node: 'Windows NT 6.2' 
***********
* Application: gapsrow1 
* Configuration:  
* Knowledgebase file: C:\ML-Tools\ACE-1.2.15\windows\gap_selection/gapsrow1.kb -- loaded 
* Background file: C:\ML-Tools\ACE-1.2.15\windows\gap_selection/gapsrow1.bg -- loaded 
* Settings file: gapsrow1.s -- loaded 
* Language file: gapsrow1.l -- loaded 
***********
* Total number of models :  3128 
***********
*SETTINGS*
 ** Common ** 
 *  heuristic : gainratio (default) 
 *  tilde_mode : classify (default) 
 *  intra_literal_sharing : yes (default) 
 *  query_batch_size : default (default) 
 *  single_query_generation : no (default) 
 *  inst_generation_prob : 1.0 (default) 
 *  rmode_inst_generation_prob : 1.0 (default) 
 *  query_sample_probability : 1.0 (default) 
 *  query_sample_algo : smart (default) 
 *  aggregate_refiners : no (default) 
 *  aggregate_recursion : no (default) 
 *  aggregate_maxconjuncts : 2 (default) 
 *  aggregate_lookahead : no (default) 
 *  aggregate_refinement : no (default) 
 *  example_cache : 102400 (default) 
 *  select_root_models : on (default) 
 *  write_predictions : [] (default) 
 *  compatibility : ace1.1 (default) 
 *  max_query_len : inf (default) 
 *  log_pid : off (default) 
 *  nsplit_unsorted_fractions : 0 (default) 
 *  nsplit_sorting : basic (default) 
 *  nsplit_version : basic (default) 
 *  nsplit_talking : off (default) 
 *  discretize : entropy (default) 
 *  transform_queries : once (default) 
 *  output_dir : default (default) 
 *  bg_file : default (default) 
 *  kb_file : default (default) 
 *  randomise : none (default) 
 *  report_timings : off (default) 
 *  default_prefix : off (default) 
 *  default_min : 1 (default) 
 *  default_preprocessing : off (default) 
 *  mi_distance_maxsample : 100 (default) 
 *  language_warnings : on (default) 
 *  expert_implicit_language : off (default) 
 *  granularity : 10 (default) 
 *  leave_out : is_test_model 
 *  classes : [gap_selected,gap_not_selected] 
 *  use_packs : ilp (default) 
 *  outerloop : queries (default) 
 *  talking : 4 
 *  load : examples 
 ** ICL 4.3 ** 
 *  beam_max_internal : 1 (default) 
 *  transform : 0 (default) 
 *  icl_heuristic_wra : no (default) 
 *  cn2_mode : off (default) 
 *  tt_sets : 1 (default) 
 *  beam_size : 5 (default) 
 *  min_accuracy : 0.0 (default) 
 *  min_coverage : 1 (default) 
 *  significance_level : 0.9 (default) 
 *  icl_heuristic : m_estimate (default) 
 *  language_init : global (default) 
 *  multi_test : bayes (default) 
 *  multi_prune : on (default) 
 *  simplify : on (default) 
 *  modes : off (default) 
 *  types : off (default) 
 *  maxbody : 10 (default) 
 *  maxhead : 10 (default) 
 *  bias : dlab (default) 
 *  language : dnf (default) 
 *  icl_multi : on 
 ** Query ** 
 *  log_query_sample_probability : 1.0 (default) 
 *  log_queries : [] (default) 
 ** Tilde ** 
 *  write_ensemble_models : [] (default) 
 *  tilde_maxdepth : inf (default) 
 *  exhaustive_lookahead : 0 (default) 
 *  query_length_bias : short (default) 
 *  special_min : 0.0 (default) 
 *  out_of_bag : no (default) 
 *  roulette_wheel_selection : no (default) 
 *  tilde_rst_optimization : no (default) 
 *  repeat_exec_time : 1 (default) 
 *  combination_rule : sum (default) 
 *  show_averages : 1 (default) 
 *  classify_mode : 0 (default) 
 *  complexity_penalty : 1.0 (default) 
 *  precompute : [] (default) 
 *  resume : off (default) 
 *  m_estimate : none (default) 
 *  output_options : [c45,prolog] (default) 
 *  prune_rules : false (default) 
 *  confidence_level : 0.25 (default) 
 *  random_test_set : 0 (default) 
 *  random_validation_set : 0 (default) 
 *  stopping_criterion : mincases (default) 
 *  pruning : c45 (default) 
 *  discretization : none (default) 
 *  multiscore_2 : off (default) 
 *  multiscore : off (default) 
 *  sampling_strategy : fixed(1000) (default) 
 *  max_querytime : 100 (default) 
 *  accuracy : 1.0 (default) 
 *  tilde_test_eval_model : std (default) 
 *  minimal_cases : 2 (default) 
 *  ftest : 0.05 (default) 
 *  tilde_version : 3.0 (default) 
 ** Warmr3 ** 
 *  arff_skip_examples : 0 (default) 
 *  warmr_version : v2_2 (default) 
 *  jan_warmr_cache_queries : off (default) 
 *  jan_warmr_confirm_overwrite : off (default) 
 *  jan_warmr_maxdepth : 100 (default) 
 *  jan_warmr_sig_constraint : A,true 
 *  jan_warmr_incremental_base : [] (default) 
 *  jan_warmr_output_to_memory : off (default) 
 *  jan_warmr_output_to_disk : on (default) 
 *  jan_warmr_make_freq_files : on (default) 
 *  bw_regression : off (default) 
 *  bw_disj : off (default) 
 *  bw_cell : on (default) 
 *  addclass : off (default) 
 *  bias : dlab 
 *  warmr_object_identity : off (default) 
 *  warmr_coverage_list : off (default) 
 *  warmr_assoc_output_options : [queries,show_query_index] (default) 
 *  warmr_assoc : off (default) 
 *  warmr_valid_func : std_meta (default) 
 *  warmr_output_options : [freq_queries,freq_packs,show_query_index] (default) 
 *  warmr_infreq_spec_level : inf (default) 
 *  warmr_batch_size : 50000 (default) 
 *  warmr_maxdepth : 100 (default) 
 *  minconf : 0.01 (default) 
 *  minfreq : 0.01 (default) 
 ************** 
**********
 **********  DLAB GRAMMAR  **********
 * dlab_template('\n\t0-len:\t[\t\n\t\t\tdistance_from_gap_to_start_ranking(c_gap_ranking),\n\t\t\tdistance_ranking_type(c_ranking_classification),\n\t\t\tgap_size(c_length_type),\n\t\t\tgap_direction_to_start(c_direction_start),\n\t\t\tgap_direction_to_target(c_direction_target)\n\t\t]\n\t\n<-- \n\t0-len:[\t\n\t\t\tdistance_from_gap_to_start_ranking(c_gap_ranking),\n\t\t\tdistance_ranking_type(c_ranking_classification),\n\t\t\tgap_size(c_length_type),\n\t\t\tgap_direction_to_start(c_direction_start),\n\t\t\tgap_direction_to_target(c_direction_target)\n\t\t\t\n\t\t]\n').
 * dlab_variable(c_ranking_classification,1-1,[close,near,far,too_far]).
 * dlab_variable(c_gap_ranking,1-len,[1,2,3,4]).
 * dlab_variable(c_direction_start,1-1,[n,nw,w,sw,s,se,e,ne]).
 * dlab_variable(c_direction_target,1-1,[n,nw,w,sw,s,se,e,ne]).
 * dlab_variable(c_length_type,1-1,[very_small_gap,small_gap,big_gap,very_big_gap]).
 ************************************


     **************
     * NEXT CLASS *
     **************

* CLASS : gap_selected
* Number of negative models : 1339 
* Number of positive models : 225 
* ===========================

Converting dlab_queries... 

(distance_from_gap_to_start_ranking(1),gap_size(big_gap)) # heur(0.922098220052184), cpu(1525.0), local(91,134,6,1333), total(91,134,6,1333)
(gap_size(very_big_gap),\+distance_from_gap_to_start_ranking(3),\+gap_direction_to_target(s)) # heur(0.809747087240693), cpu(3126.0), local(7,127,0,1339), total(7,218,0,1339)
(distance_from_gap_to_start_ranking(1),gap_size(small_gap),gap_direction_to_start(ne)) # heur(0.714314837466177), cpu(4100.0), local(49,78,18,1321), total(49,176,18,1321)
(gap_size(very_big_gap),\+gap_direction_to_start(nw)) # heur(0.699353883429802), cpu(5525.0), local(13,65,4,1335), total(20,205,4,1335)
(distance_ranking_type(near),gap_size(big_gap),\+gap_direction_to_start(nw)) # heur(0.554469613932529), cpu(6825.0), local(23,42,17,1322), total(23,202,17,1322)
(distance_from_gap_to_start_ranking(2),gap_size(big_gap),gap_direction_to_start(ne)) # heur(0.457544757033248), cpu(7897.0), local(2,40,1,1338), total(2,223,1,1338)
(distance_from_gap_to_start_ranking(1),gap_size(small_gap),gap_direction_to_target(s)) # heur(0.431254144169745), cpu(9212.0), local(23,17,29,1310), total(23,202,29,1310)
(gap_size(big_gap),gap_direction_to_start(nw),\+distance_ranking_type(near)) # heur(0.42924126172208), cpu(10717.0), local(1,16,0,1339), total(1,224,0,1339)
(distance_from_gap_to_start_ranking(2),distance_ranking_type(close),gap_size(big_gap),\+gap_direction_to_start(e)) # heur(0.21462063086104), cpu(12683.0), local(1,15,3,1336), total(4,221,3,1336)
(distance_from_gap_to_start_ranking(2),gap_direction_to_target(sw),\+gap_size(very_small_gap)) # heur(0.17150895140665), cpu(15407.0), local(4,11,19,1320), total(9,216,19,1320)

************************************************************

finished : there are still positive models left... 

[13,533,546,653,1175,1278,2633,2693,2749,2774,2866]

********** STATISTICS for ICL run *********
* Consumed cpu (seconds, hours):  [17259.0,4.79416666666667] 
* Stop Date:dd/mm/yyyy
*
* Nodes pruned for syntactic reasons: 509 
*   + maxhead exceeded:               0 
*   + maxbody exceeded:               0 
*   + not range restricted:           0 
*   + tautology:                      509 
*   + type declarations violated:     0 
*   + mode declarations violated:     0 
*
* Nodes pruned for semantic reasons:        7640 
*   + too few positives covered:            3404 
*   + no additional information (fairness): 3952 
*   + not possibly significant:             0 
*   + can't become better than best:        281 
*   + can't become better:                  3 
*
* Nodes kept: 1825 
*  + added to beam:     520 
*  + not added to beam: 1305 
*
* Nodes visited: 9974 
* 
***********************************


     **************
     * NEXT CLASS *
     **************

* CLASS : gap_not_selected
* Number of negative models : 225 
* Number of positive models : 1339 
* ===========================

Converting dlab_queries... 

(gap_size(very_small_gap),\+distance_from_gap_to_start_ranking(1),\+gap_direction_to_start(n)) # heur(0.99962969911819), cpu(1520.0), local(775,564,0,225), total(775,564,0,225)
(distance_ranking_type(far),\+gap_direction_to_target(sw)) # heur(0.998568538382258), cpu(2599.0), local(199,365,0,225), total(667,672,0,225)
(true,\+distance_from_gap_to_start_ranking(1),\+distance_ranking_type(close),\+gap_direction_to_target(sw)) # heur(0.989724150529777), cpu(6606.0), local(26,339,0,225), total(796,543,0,225)
(gap_size(very_small_gap),\+distance_from_gap_to_start_ranking(1)) # heur(0.981603945926197), cpu(8162.0), local(67,272,1,224), total(842,497,1,224)
(gap_size(very_small_gap),\+gap_direction_to_start(n)) # heur(0.960556486462651), cpu(10017.0), local(54,218,2,223), total(829,510,2,223)
(gap_direction_to_start(nw),\+gap_size(big_gap)) # heur(0.952046035805627), cpu(11325.0), local(4,214,0,225), total(502,837,0,225)
(distance_ranking_type(far)) # heur(0.941467100674262), cpu(12636.0), local(19,195,1,224), total(686,653,1,224)
(gap_size(very_small_gap),\+distance_from_gap_to_start_ranking(2),\+gap_direction_to_start(ne)) # heur(0.938355649165037), cpu(13960.0), local(94,101,6,219), total(565,774,6,219)
(gap_direction_to_start(e),\+distance_ranking_type(near),\+gap_size(small_gap)) # heur(0.904092071611253), cpu(15569.0), local(1,100,0,225), total(272,1067,0,225)
(gap_size(small_gap),\+distance_from_gap_to_start_ranking(1),\+gap_direction_to_target(sw)) # heur(0.871227621483376), cpu(17676.0), local(7,93,1,224), total(216,1123,1,224)
(gap_direction_to_start(e),\+distance_from_gap_to_start_ranking(3),\+distance_ranking_type(near)) # heur(0.856919579425973), cpu(19991.0), local(6,87,1,224), total(225,1114,1,224)

************************************************************

finished : there are still positive models left... 

[71,142,158,166,194,247,329,346,426,433,641,681,706,731,742,757,782,825,838,942,950,1021,1037,1045,1051,1222,1239,1269,1279,1355,1538,1662,1669,1709,1718,1725,1731,1853,1881,1913,1934,1965,1970,1985,1991,2033,2034,2058,2073,2093,2114,2158,2162,2167,2205,2218,2241,2259,2275,2375,2402,2417,2434,2449,2459,2487,2498,2502,2503,2550,2559,2566,2570,2754,2849,2877,2881,2886,2905,2914,2959,2986,3011,3050,3069,3105,3111]

********** STATISTICS for ICL run *********
* Consumed cpu (seconds, hours):  [22176.0,6.16] 
* Stop Date:dd/mm/yyyy
*
* Nodes pruned for syntactic reasons: 420 
*   + maxhead exceeded:               0 
*   + maxbody exceeded:               0 
*   + not range restricted:           0 
*   + tautology:                      420 
*   + type declarations violated:     0 
*   + mode declarations violated:     0 
*
* Nodes pruned for semantic reasons:        7627 
*   + too few positives covered:            3380 
*   + no additional information (fairness): 3619 
*   + not possibly significant:             138 
*   + can't become better than best:        470 
*   + can't become better:                  20 
*
* Nodes kept: 1543 
*  + added to beam:     483 
*  + not added to beam: 1060 
*
* Nodes visited: 9590 
* 
***********************************

% Merging seperate  dnf  theories... 
%******* PRUNING: rule(gap_selected,[[23,29],[202,1310]],(distance_from_gap_to_start_ranking(1),gap_size(small_gap),gap_direction_to_target(s))) 
%******* PRUNING: rule(gap_selected,[[9,19],[216,1320]],(distance_from_gap_to_start_ranking(2),gap_direction_to_target(sw),\+gap_size(very_small_gap))) 

**** R E G U L A R   E N D  after 39498.0 cpu seconds **** 

*** ICL ***
***********
* Version: 4.3 - ACE 1.2.15 
* Runtime: no 
***********
* Date: dd/mm/yyyy 
* User: unknown 
* Dir: C:\ML-Tools\ACE-1.2.15\windows\gap_selection/ 
* Node: 'Windows NT 6.2' 
***********
* Application: gapsrow1 
* Configuration:  
* Knowledgebase file: C:\ML-Tools\ACE-1.2.15\windows\gap_selection/gapsrow1.kb -- loaded 
* Background file: C:\ML-Tools\ACE-1.2.15\windows\gap_selection/gapsrow1.bg -- loaded 
* Settings file: gapsrow1.s -- loaded 
* Language file: gapsrow1.l -- loaded 
***********
* Total number of models :  3128 
***********
*SETTINGS*
 ** Common ** 
 *  heuristic : gainratio (default) 
 *  tilde_mode : classify (default) 
 *  intra_literal_sharing : yes (default) 
 *  query_batch_size : default (default) 
 *  single_query_generation : no (default) 
 *  inst_generation_prob : 1.0 (default) 
 *  rmode_inst_generation_prob : 1.0 (default) 
 *  query_sample_probability : 1.0 (default) 
 *  query_sample_algo : smart (default) 
 *  aggregate_refiners : no (default) 
 *  aggregate_recursion : no (default) 
 *  aggregate_maxconjuncts : 2 (default) 
 *  aggregate_lookahead : no (default) 
 *  aggregate_refinement : no (default) 
 *  example_cache : 102400 (default) 
 *  select_root_models : on (default) 
 *  write_predictions : [] (default) 
 *  compatibility : ace1.1 (default) 
 *  max_query_len : inf (default) 
 *  log_pid : off (default) 
 *  nsplit_unsorted_fractions : 0 (default) 
 *  nsplit_sorting : basic (default) 
 *  nsplit_version : basic (default) 
 *  nsplit_talking : off (default) 
 *  discretize : entropy (default) 
 *  transform_queries : once (default) 
 *  output_dir : default (default) 
 *  bg_file : default (default) 
 *  kb_file : default (default) 
 *  randomise : none (default) 
 *  report_timings : off (default) 
 *  default_prefix : off (default) 
 *  default_min : 1 (default) 
 *  default_preprocessing : off (default) 
 *  mi_distance_maxsample : 100 (default) 
 *  language_warnings : on (default) 
 *  expert_implicit_language : off (default) 
 *  granularity : 10 (default) 
 *  leave_out : is_test_model 
 *  classes : [gap_selected,gap_not_selected] 
 *  use_packs : ilp (default) 
 *  outerloop : queries (default) 
 *  talking : 4 
 *  load : examples 
 ** ICL 4.3 ** 
 *  beam_max_internal : 1 (default) 
 *  transform : 0 (default) 
 *  icl_heuristic_wra : no (default) 
 *  cn2_mode : off (default) 
 *  tt_sets : 1 (default) 
 *  beam_size : 5 (default) 
 *  min_accuracy : 0.0 (default) 
 *  min_coverage : 1 (default) 
 *  significance_level : 0.9 (default) 
 *  icl_heuristic : m_estimate (default) 
 *  language_init : global (default) 
 *  multi_test : bayes (default) 
 *  multi_prune : on (default) 
 *  simplify : on (default) 
 *  modes : off (default) 
 *  types : off (default) 
 *  maxbody : 10 (default) 
 *  maxhead : 10 (default) 
 *  bias : dlab (default) 
 *  language : dnf (default) 
 *  icl_multi : on 
 ** Query ** 
 *  log_query_sample_probability : 1.0 (default) 
 *  log_queries : [] (default) 
 ** Tilde ** 
 *  write_ensemble_models : [] (default) 
 *  tilde_maxdepth : inf (default) 
 *  exhaustive_lookahead : 0 (default) 
 *  query_length_bias : short (default) 
 *  special_min : 0.0 (default) 
 *  out_of_bag : no (default) 
 *  roulette_wheel_selection : no (default) 
 *  tilde_rst_optimization : no (default) 
 *  repeat_exec_time : 1 (default) 
 *  combination_rule : sum (default) 
 *  show_averages : 1 (default) 
 *  classify_mode : 0 (default) 
 *  complexity_penalty : 1.0 (default) 
 *  precompute : [] (default) 
 *  resume : off (default) 
 *  m_estimate : none (default) 
 *  output_options : [c45,prolog] (default) 
 *  prune_rules : false (default) 
 *  confidence_level : 0.25 (default) 
 *  random_test_set : 0 (default) 
 *  random_validation_set : 0 (default) 
 *  stopping_criterion : mincases (default) 
 *  pruning : c45 (default) 
 *  discretization : none (default) 
 *  multiscore_2 : off (default) 
 *  multiscore : off (default) 
 *  sampling_strategy : fixed(1000) (default) 
 *  max_querytime : 100 (default) 
 *  accuracy : 1.0 (default) 
 *  tilde_test_eval_model : std (default) 
 *  minimal_cases : 2 (default) 
 *  ftest : 0.05 (default) 
 *  tilde_version : 3.0 (default) 
 ** Warmr3 ** 
 *  arff_skip_examples : 0 (default) 
 *  warmr_version : v2_2 (default) 
 *  jan_warmr_cache_queries : off (default) 
 *  jan_warmr_confirm_overwrite : off (default) 
 *  jan_warmr_maxdepth : 100 (default) 
 *  jan_warmr_sig_constraint : A,true 
 *  jan_warmr_incremental_base : [] (default) 
 *  jan_warmr_output_to_memory : off (default) 
 *  jan_warmr_output_to_disk : on (default) 
 *  jan_warmr_make_freq_files : on (default) 
 *  bw_regression : off (default) 
 *  bw_disj : off (default) 
 *  bw_cell : on (default) 
 *  addclass : off (default) 
 *  bias : dlab 
 *  warmr_object_identity : off (default) 
 *  warmr_coverage_list : off (default) 
 *  warmr_assoc_output_options : [queries,show_query_index] (default) 
 *  warmr_assoc : off (default) 
 *  warmr_valid_func : std_meta (default) 
 *  warmr_output_options : [freq_queries,freq_packs,show_query_index] (default) 
 *  warmr_infreq_spec_level : inf (default) 
 *  warmr_batch_size : 50000 (default) 
 *  warmr_maxdepth : 100 (default) 
 *  minconf : 0.01 (default) 
 *  minfreq : 0.01 (default) 
 ************** 
**********
 **********  DLAB GRAMMAR  **********
 * dlab_template('\n\t0-len:\t[\t\n\t\t\tdistance_from_gap_to_start_ranking(c_gap_ranking),\n\t\t\tdistance_ranking_type(c_ranking_classification),\n\t\t\tgap_size(c_length_type),\n\t\t\tgap_direction_to_start(c_direction_start),\n\t\t\tgap_direction_to_target(c_direction_target)\n\t\t]\n\t\n<-- \n\t0-len:[\t\n\t\t\tdistance_from_gap_to_start_ranking(c_gap_ranking),\n\t\t\tdistance_ranking_type(c_ranking_classification),\n\t\t\tgap_size(c_length_type),\n\t\t\tgap_direction_to_start(c_direction_start),\n\t\t\tgap_direction_to_target(c_direction_target)\n\t\t\t\n\t\t]\n').
 * dlab_variable(c_ranking_classification,1-1,[close,near,far,too_far]).
 * dlab_variable(c_gap_ranking,1-len,[1,2,3,4]).
 * dlab_variable(c_direction_start,1-1,[n,nw,w,sw,s,se,e,ne]).
 * dlab_variable(c_direction_target,1-1,[n,nw,w,sw,s,se,e,ne]).
 * dlab_variable(c_length_type,1-1,[very_small_gap,small_gap,big_gap,very_big_gap]).
 ************************************


     **************
     * NEXT CLASS *
     **************

* CLASS : gap_selected
* Number of negative models : 1330 
* Number of positive models : 234 
* ===========================

Converting dlab_queries... 

(distance_from_gap_to_start_ranking(1),gap_size(big_gap),gap_direction_to_target(sw)) # heur(0.936476118061796), cpu(2584.0), local(69,165,3,1327), total(69,165,3,1327)
(gap_size(big_gap),gap_direction_to_start(n)) # heur(0.885347139916412), cpu(4988.0), local(36,129,3,1327), total(36,198,3,1327)
(distance_from_gap_to_start_ranking(1),gap_size(very_big_gap)) # heur(0.792248672044068), cpu(7355.0), local(10,119,1,1329), total(10,224,1,1329)
(distance_from_gap_to_start_ranking(2),gap_direction_to_start(ne),\+gap_size(very_small_gap)) # heur(0.735659481183778), cpu(9790.0), local(10,109,2,1328), total(10,224,2,1328)
(gap_size(very_big_gap),gap_direction_to_start(e)) # heur(0.66466074921017), cpu(12089.0), local(11,98,4,1326), total(11,223,4,1326)
(distance_from_gap_to_start_ranking(1),gap_size(small_gap),gap_direction_to_start(ne)) # heur(0.656048980857165), cpu(13902.0), local(43,55,21,1309), total(43,191,21,1309)
(distance_from_gap_to_start_ranking(2),distance_ranking_type(near),gap_size(big_gap)) # heur(0.574808184143223), cpu(15873.0), local(2,53,0,1330), total(2,232,0,1330)
(distance_from_gap_to_start_ranking(1),gap_size(small_gap),gap_direction_to_start(n)) # heur(0.505343441724516), cpu(17718.0), local(28,25,26,1304), total(28,206,26,1304)
(gap_size(big_gap),gap_direction_to_start(e)) # heur(0.275591042355436), cpu(19843.0), local(11,14,28,1302), total(14,220,28,1302)

************************************************************

finished : there are still positive models left... 

[479,563,574,579,1087,1103,1205,2233,2714,2758,2779,2818,2842,2854]

********** STATISTICS for ICL run *********
* Consumed cpu (seconds, hours):  [22822.0,6.33944444444444] 
* Stop Date:dd/mm/yyyy
*
* Nodes pruned for syntactic reasons: 435 
*   + maxhead exceeded:               0 
*   + maxbody exceeded:               0 
*   + not range restricted:           0 
*   + tautology:                      435 
*   + type declarations violated:     0 
*   + mode declarations violated:     0 
*
* Nodes pruned for semantic reasons:        6780 
*   + too few positives covered:            3006 
*   + no additional information (fairness): 3486 
*   + not possibly significant:             60 
*   + can't become better than best:        227 
*   + can't become better:                  1 
*
* Nodes kept: 1750 
*  + added to beam:     473 
*  + not added to beam: 1277 
*
* Nodes visited: 8965 
* 
***********************************


     **************
     * NEXT CLASS *
     **************

* CLASS : gap_not_selected
* Number of negative models : 234 
* Number of positive models : 1330 
* ===========================

Converting dlab_queries... 

(gap_size(very_small_gap),\+distance_from_gap_to_start_ranking(1)) # heur(0.999625490942963), cpu(2883.0), local(797,533,0,234), total(797,533,0,234)
(gap_direction_to_start(nw)) # heur(0.998044230479916), cpu(6816.0), local(151,382,0,234), total(566,764,0,234)
(distance_from_gap_to_start_ranking(3),\+gap_direction_to_target(sw)) # heur(0.983343170043937), cpu(9012.0), local(75,307,1,233), total(344,986,1,233)
(gap_size(very_small_gap),\+gap_direction_to_start(ne)) # heur(0.977891992917568), cpu(11820.0), local(100,207,2,232), total(867,463,2,232)
(distance_ranking_type(far),\+distance_from_gap_to_start_ranking(3)) # heur(0.948030690537084), cpu(14703.0), local(22,185,1,233), total(388,942,1,233)
(gap_size(very_small_gap),\+gap_direction_to_start(n)) # heur(0.929520774810281), cpu(16623.0), local(55,130,4,230), total(795,535,4,230)
(distance_ranking_type(far),\+gap_direction_to_target(w)) # heur(0.856692242114237), cpu(19713.0), local(24,106,4,230), total(416,914,4,230)
(gap_direction_to_target(s),\+distance_from_gap_to_start_ranking(1),\+gap_size(big_gap)) # heur(0.891730605285593), cpu(22386.0), local(9,97,1,233), total(241,1089,1,233)
(distance_ranking_type(close),gap_direction_to_start(e),\+gap_size(big_gap)) # heur(0.962595907928389), cpu(25858.0), local(6,91,0,234), total(43,1287,0,234)

************************************************************

finished : there are still positive models left... 

[105,215,221,271,282,290,295,310,371,403,405,431,457,494,523,618,633,713,719,723,762,923,937,990,993,998,1001,1005,1050,1065,1078,1110,1238,1287,1303,1343,1383,1386,1399,1431,1449,1454,1459,1493,1570,1649,1670,1738,1745,1750,1769,1799,1838,1933,1946,1986,2003,2015,2038,2098,2111,2137,2141,2146,2150,2170,2181,2187,2217,2238,2255,2306,2330,2393,2397,2443,2478,2523,2571,2602,2610,2623,2646,2722,2726,2775,2787,2867,2966,2990,3086]

********** STATISTICS for ICL run *********
* Consumed cpu (seconds, hours):  [28117.0,7.81027777777778] 
* Stop Date:dd/mm/yyyy
*
* Nodes pruned for syntactic reasons: 357 
*   + maxhead exceeded:               0 
*   + maxbody exceeded:               0 
*   + not range restricted:           0 
*   + tautology:                      357 
*   + type declarations violated:     0 
*   + mode declarations violated:     0 
*
* Nodes pruned for semantic reasons:        6660 
*   + too few positives covered:            2958 
*   + no additional information (fairness): 2861 
*   + not possibly significant:             82 
*   + can't become better than best:        755 
*   + can't become better:                  4 
*
* Nodes kept: 1067 
*  + added to beam:     415 
*  + not added to beam: 652 
*
* Nodes visited: 8084 
* 
***********************************

% Merging seperate  dnf  theories... 
%******* PRUNING: rule(gap_selected,[[14,28],[220,1302]],(gap_size(big_gap),gap_direction_to_start(e))) 

**** R E G U L A R   E N D  after 50995.0 cpu seconds **** 

